{
    "app-id": "io.freedesktop_sdk.SimpleProject",
    "runtime": "org.freedesktop.Platform",
    "runtime-version": "25.08beta",
    "sdk": "org.freedesktop.Sdk",
    "command": "hello",
    "modules": [
        {
            "name": "hello",
            "buildsystem": "meson",
            "sources": [
                {
                    "type": "dir",
                    "path": "simpleproject"
                }
            ]
        }
    ]
}
